## Autogenerated by Scribe. DO NOT MODIFY.

name: products
description: ''
endpoints:
  -
    httpMethods:
      - POST
    uri: api/products
    metadata:
      title: 'Store a newly created resource in storage.'
      description: ''
      authenticated: true
    headers:
      Authorization: 'Bearer {API_TOKEN}'
      Content-Type: application/json
      Accept: application/json
    urlParameters: []
    queryParameters: []
    bodyParameters:
      product:
        name: product
        description: ''
        required: false
        example: []
        type: object
      product.name:
        name: product.name
        description: ''
        required: true
        example: aut
        type: string
      product.category_id:
        name: product.category_id
        description: ''
        required: true
        example: voluptatem
        type: numeric
      product.gender_id:
        name: product.gender_id
        description: ''
        required: true
        example: molestiae
        type: numeric
      product.description:
        name: product.description
        description: ''
        required: true
        example: explicabo
        type: string
      product.price:
        name: product.price
        description: ''
        required: true
        example: fuga
        type: numeric
      product.photo_path:
        name: product.photo_path
        description: ''
        required: true
        example: fuga
        type: string
      product_details:
        name: product_details
        description: ''
        required: false
        example:
          - []
          - []
        type: 'object[]'
      'product_details[].size':
        name: 'product_details[].size'
        description: ''
        required: true
        example: quaerat
        type: string
      'product_details[].color':
        name: 'product_details[].color'
        description: ''
        required: true
        example: nisi
        type: string
      'product_details[].units':
        name: 'product_details[].units'
        description: ''
        required: true
        example: dolores
        type: numeric
    responses: []
    responseFields: []
  -
    httpMethods:
      - PUT
      - PATCH
    uri: 'api/products/{id}'
    metadata:
      title: 'Update the specified resource in storage.'
      description: ''
      authenticated: true
    headers:
      Authorization: 'Bearer {API_TOKEN}'
      Content-Type: application/json
      Accept: application/json
    urlParameters:
      id:
        name: id
        description: 'The ID of the product.'
        required: true
        example: 7
        type: integer
    queryParameters: []
    bodyParameters:
      name:
        name: name
        description: ''
        required: false
        example: iste
        type: string
      category_id:
        name: category_id
        description: ''
        required: false
        example: 4.795444
        type: number
      gender_id:
        name: gender_id
        description: ''
        required: false
        example: !!float 459
        type: number
      description:
        name: description
        description: ''
        required: false
        example: doloremque
        type: string
      price:
        name: price
        description: ''
        required: false
        example: 1274238.2580099
        type: number
      photo_path:
        name: photo_path
        description: ''
        required: false
        example: aperiam
        type: string
    responses: []
    responseFields: []
  -
    httpMethods:
      - DELETE
    uri: 'api/products/{id}'
    metadata:
      title: 'Remove the specified resource from storage.'
      description: ''
      authenticated: true
    headers:
      Authorization: 'Bearer {API_TOKEN}'
      Content-Type: application/json
      Accept: application/json
    urlParameters:
      id:
        name: id
        description: 'The ID of the product.'
        required: true
        example: 2
        type: integer
    queryParameters: []
    bodyParameters: []
    responses: []
    responseFields: []
  -
    httpMethods:
      - GET
    uri: api/products
    metadata:
      title: 'Display a listing of the resource.'
      description: ''
      authenticated: false
    headers:
      Content-Type: application/json
      Accept: application/json
    urlParameters: []
    queryParameters: []
    bodyParameters: []
    responses:
      -
        status: 200
        content: '{"current_page":1,"data":[{"id":1,"category_id":2,"gender_id":1,"name":"Just then she noticed that they had to stoop to.","description":"Caterpillar sternly. ''Explain yourself!'' ''I can''t remember half of them--and it belongs to a.","price":"34582.02","photo_path":"https:\/\/via.placeholder.com\/640x480.png\/001188?text=product+sapiente","created_at":"2021-07-02T02:24:22.000000Z","updated_at":"2021-07-02T02:24:22.000000Z","deleted_at":null},{"id":2,"category_id":2,"gender_id":3,"name":"I don''t take this young lady to see what the.","description":"Alice could think of what sort it was) scratching and scrambling about in the long hall, and close.","price":"31585.28","photo_path":"https:\/\/via.placeholder.com\/640x480.png\/006611?text=product+fuga","created_at":"2021-07-02T02:24:22.000000Z","updated_at":"2021-07-02T02:24:22.000000Z","deleted_at":null},{"id":3,"category_id":3,"gender_id":2,"name":"The Fish-Footman began by producing from under.","description":"Alice: ''besides, that''s not a moment to be a grin, and she set to work, and very soon had to sing.","price":"90845.96","photo_path":"https:\/\/via.placeholder.com\/640x480.png\/0022ff?text=product+quia","created_at":"2021-07-02T02:24:22.000000Z","updated_at":"2021-07-02T02:24:22.000000Z","deleted_at":null},{"id":4,"category_id":1,"gender_id":2,"name":"Cat, ''a dog''s not mad. You grant that?'' ''I.","description":"There was a table, with a round face, and was going to begin with; and being so many different.","price":"74243.71","photo_path":"https:\/\/via.placeholder.com\/640x480.png\/008877?text=product+quia","created_at":"2021-07-02T02:24:23.000000Z","updated_at":"2021-07-02T02:24:23.000000Z","deleted_at":null},{"id":5,"category_id":1,"gender_id":2,"name":"The Pool of Tears ''Curiouser and curiouser!''.","description":"I do,'' said the Mock Turtle, and to stand on their backs was the first figure!'' said the Gryphon.","price":"17843.06","photo_path":"https:\/\/via.placeholder.com\/640x480.png\/0077bb?text=product+repellat","created_at":"2021-07-02T02:24:23.000000Z","updated_at":"2021-07-02T02:24:23.000000Z","deleted_at":null},{"id":6,"category_id":2,"gender_id":1,"name":"Alice. ''Well, then,'' the Gryphon at the flowers.","description":"Queen''s absence, and were quite dry again, the cook took the hookah out of sight: then it.","price":"14219.29","photo_path":"https:\/\/via.placeholder.com\/640x480.png\/003311?text=product+amet","created_at":"2021-07-02T02:24:23.000000Z","updated_at":"2021-07-02T02:24:23.000000Z","deleted_at":null},{"id":7,"category_id":4,"gender_id":4,"name":"Dormouse say?'' one of the table, but there were.","description":"What happened to me! When I used to read fairy-tales, I fancied that kind of thing never happened.","price":"84650.34","photo_path":"https:\/\/via.placeholder.com\/640x480.png\/00ccdd?text=product+praesentium","created_at":"2021-07-02T02:24:23.000000Z","updated_at":"2021-07-02T02:24:23.000000Z","deleted_at":null},{"id":8,"category_id":3,"gender_id":2,"name":"And yet I wish you could see it quite plainly.","description":"The Queen turned angrily away from him, and very soon came to the end of the evening, beautiful.","price":"78114.70","photo_path":"https:\/\/via.placeholder.com\/640x480.png\/00aa11?text=product+sapiente","created_at":"2021-07-02T02:24:23.000000Z","updated_at":"2021-07-02T02:24:23.000000Z","deleted_at":null},{"id":9,"category_id":2,"gender_id":1,"name":"White Rabbit blew three blasts on the bank, with.","description":"I shan''t go, at any rate: go and take it away!'' There was no longer to be seen--everything seemed.","price":"86292.68","photo_path":"https:\/\/via.placeholder.com\/640x480.png\/0000bb?text=product+eligendi","created_at":"2021-07-02T02:24:23.000000Z","updated_at":"2021-07-02T02:24:23.000000Z","deleted_at":null},{"id":10,"category_id":2,"gender_id":3,"name":"As she said these words her foot slipped, and in.","description":"Gryphon went on, ''and most of ''em do.'' ''I don''t know much,'' said the Caterpillar called after her.","price":"60412.31","photo_path":"https:\/\/via.placeholder.com\/640x480.png\/002299?text=product+aut","created_at":"2021-07-02T02:24:23.000000Z","updated_at":"2021-07-02T02:24:23.000000Z","deleted_at":null},{"id":11,"category_id":1,"gender_id":1,"name":"Licensed Frozen Pants","description":"zero administration","price":"196.22","photo_path":"\/usr\/libdata\/auto_invoice.application","created_at":"2021-07-03T06:24:15.000000Z","updated_at":"2021-07-03T06:24:15.000000Z","deleted_at":null},{"id":12,"category_id":1,"gender_id":1,"name":"Intelligent Metal Shoes","description":"maximized","price":"674.86","photo_path":"\/var\/log\/invoice_greece.tsv","created_at":"2021-07-03T06:25:38.000000Z","updated_at":"2021-07-03T06:25:38.000000Z","deleted_at":null}],"first_page_url":"http:\/\/localhost\/api\/products?page=1","from":1,"last_page":6,"last_page_url":"http:\/\/localhost\/api\/products?page=6","links":[{"url":null,"label":"&laquo; Previous","active":false},{"url":"http:\/\/localhost\/api\/products?page=1","label":"1","active":true},{"url":"http:\/\/localhost\/api\/products?page=2","label":"2","active":false},{"url":"http:\/\/localhost\/api\/products?page=3","label":"3","active":false},{"url":"http:\/\/localhost\/api\/products?page=4","label":"4","active":false},{"url":"http:\/\/localhost\/api\/products?page=5","label":"5","active":false},{"url":"http:\/\/localhost\/api\/products?page=6","label":"6","active":false},{"url":"http:\/\/localhost\/api\/products?page=2","label":"Next &raquo;","active":false}],"next_page_url":"http:\/\/localhost\/api\/products?page=2","path":"http:\/\/localhost\/api\/products","per_page":12,"prev_page_url":null,"to":12,"total":71}'
        headers:
          cache-control: 'no-cache, private'
          content-type: application/json
          x-ratelimit-limit: '60'
          x-ratelimit-remaining: '59'
          access-control-allow-origin: '*'
        description: null
    responseFields: []
  -
    httpMethods:
      - GET
    uri: 'api/products/{id}'
    metadata:
      title: 'Display the specified resource.'
      description: ''
      authenticated: false
    headers:
      Content-Type: application/json
      Accept: application/json
    urlParameters:
      id:
        name: id
        description: 'The ID of the product.'
        required: true
        example: 4
        type: integer
    queryParameters: []
    bodyParameters: []
    responses:
      -
        status: 200
        content: '{"id":1,"category_id":2,"gender_id":1,"name":"Just then she noticed that they had to stoop to.","description":"Caterpillar sternly. ''Explain yourself!'' ''I can''t remember half of them--and it belongs to a.","price":"34582.02","photo_path":"https:\/\/via.placeholder.com\/640x480.png\/001188?text=product+sapiente","created_at":"2021-07-02T02:24:22.000000Z","updated_at":"2021-07-02T02:24:22.000000Z","deleted_at":null}'
        headers:
          cache-control: 'no-cache, private'
          content-type: application/json
          x-ratelimit-limit: '60'
          x-ratelimit-remaining: '58'
          access-control-allow-origin: '*'
        description: null
    responseFields: []
